{
  "project_info": {
    "project_number": "405439259579",
    "firebase_url": "https://tptfirebaseproject.firebaseio.com",
    "project_id": "tptfirebaseproject",
    "storage_bucket": "tptfirebaseproject.appspot.com"
  },
  "client": [
    {
      "client_info": {
        "mobilesdk_app_id": "1:405439259579:android:717f7456b6d16093da1a9e",
        "android_client_info": {
          "package_name": "com.amiral.universite"
        }
      },
      "oauth_client": [
        {
          "client_id": "405439259579-a7a0cpsojabc7b39tc8d24n0gncvkguh.apps.googleusercontent.com",
          "client_type": 1,
          "android_info": {
            "package_name": "com.amiral.universite",
            "certificate_hash": "72e6a5922c7ff42013666f7b7e3f7a9afa64037f"
          }
        },
        {
          "client_id": "405439259579-21ag258416qif2br7sfuknfhk4jsis5o.apps.googleusercontent.com",
          "client_type": 3
        }
      ],
      "api_key": [
        {
          "current_key": "AIzaSyB_YTuqLHbeUC2cMRiA50p1SCc6AfnZm1Y"
        }
      ],
      "services": {
        "appinvite_service": {
          "other_platform_oauth_client": [
            {
              "client_id": "405439259579-21ag258416qif2br7sfuknfhk4jsis5o.apps.googleusercontent.com",
              "client_type": 3
            }
          ]
        }
      }
    }
  ],
  "configuration_version": "1"
}